[
    {
        "name": "Genesis",
        "refs": [
            "1:1-2",
            "1:1-2",
            "1:14-19",
            "1:3-5",
            "1:6-8",
            "1:14-19",
            "1:11",
            "1:11",
            "1:14",
            "1:16",
            "1:16",
            "1:17",
            "1:24",
            "1:26",
            "1:28",
            "1:29",
            "1:30",
            "1:31",
            "1:31",
            "2:7",
            "2:18-22",
            "2:19",
            "3:14",
            "3:17-18",
            "5:8",
            "5:11",
            "5:14",
            "5:17",
            "5:20",
            "5:21-24",
            "5:23",
            "5:25",
            "5:27",
            "5:31",
            "6:4",
            "6:14-16",
            "7:8",
            "7:11",
            "7:13-14",
            "7:20",
            "8:2",
            "8:8-11",
            "8:19",
            "7:8",
            "8:20-21",
            "9:1",
            "9:2",
            "9:2",
            "9:13",
            "10:25",
            "11:1",
            "11:4-6",
            "11:9",
            "11:10-32",
            "11:12-13",
            "11:14-15",
            "11:16-17",
            "11:18-19",
            "11:20-21",
            "11:22-23",
            "11:24-25",
            "11:32",
            "18:29",
            "30:6",
            "14:14",
            "21:32",
            "26:1",
            "30:27",
            "30:37-39",
            "30:37-39",
            "31:11-12",
            "44:5-15"
        ],
        "relativeCount": 1,
        "url": "gen/sci_list.html",
        "verseCount": 149
    },
    {
        "name": "Exodus",
        "refs": [
            "2:3",
            "1:5",
            "12:37",
            "38:26",
            "4:11",
            "9:24",
            "13:17",
            "15:26",
            "16:14-15",
            "16:35",
            "19:16-18",
            "20:11"
        ],
        "relativeCount": 0.10067114093959731,
        "url": "ex/sci_list.html",
        "verseCount": 15
    },
    {
        "name": "Leviticus",
        "refs": [
            "11:5-6",
            "11:13",
            "11:20",
            "11:23",
            "14:2-52"
        ],
        "relativeCount": 0.37583892617449666,
        "url": "lev/sci_list.html",
        "verseCount": 56
    },
    {
        "name": "Numbers",
        "refs": [
            "1:5",
            "1:45-46",
            "26:51",
            "9:15",
            "9:16-23",
            "12:10",
            "13:23",
            "6:4",
            "13:33",
            "20:11",
            "21:6",
            "21:8",
            "23:22",
            "24:8",
            "32:13"
        ],
        "relativeCount": 0.15436241610738255,
        "url": "num/sci_list.html",
        "verseCount": 23
    },
    {
        "name": "Deuteronomy",
        "refs": [
            "1:28",
            "2:7",
            "8:2",
            "29:5",
            "2:10-11",
            "3:11",
            "12:37",
            "1:45-46",
            "7:1",
            "8:15",
            "9:2",
            "9:9",
            "14:7-8",
            "14:11",
            "28:23",
            "28:24",
            "32:11",
            "32:33",
            "33:17"
        ],
        "relativeCount": 0.1476510067114094,
        "url": "dt/sci_list.html",
        "verseCount": 22
    },
    {
        "name": "Joshua",
        "refs": [
            "5:6",
            "6:26",
            "7:32",
            "8:28",
            "10:12-13",
            "12:4",
            "13:12"
        ],
        "relativeCount": 0.053691275167785234,
        "url": "jos/sci_list.html",
        "verseCount": 8
    },
    {
        "name": "Judges",
        "refs": [
            "5:20",
            "5:31",
            "14:5-8"
        ],
        "relativeCount": 0.040268456375838924,
        "url": "jg/sci_list.html",
        "verseCount": 6
    },
    {
        "name": "Ruth",
        "refs": [],
        "relativeCount": 0,
        "url": null,
        "verseCount": 0
    },
    {
        "name": "1 Samuel",
        "refs": [
            "2:8",
            "9:2",
            "12:18",
            "14:15",
            "17:4"
        ],
        "relativeCount": 0.03355704697986577,
        "url": "1sam/sci_list.html",
        "verseCount": 5
    },
    {
        "name": "2 Samuel",
        "refs": [
            "14:25-26",
            "21:16",
            "21:18",
            "21:20",
            "21:22",
            "22:8",
            "22:16",
            "24:9"
        ],
        "relativeCount": 0.06040268456375839,
        "url": "2sam/sci_list.html",
        "verseCount": 9
    },
    {
        "name": "1 Kings",
        "refs": [
            "1:39-40",
            "7:23",
            "8:35",
            "13:4-6",
            "13:24-25",
            "19:11-12"
        ],
        "relativeCount": 0.0738255033557047,
        "url": "1kg/sci_list.html",
        "verseCount": 11
    },
    {
        "name": "2 Kings",
        "refs": [
            "2:23-24",
            "4:16-17",
            "4:32-35",
            "5:14",
            "5:27",
            "6:6",
            "6:12",
            "13:21",
            "20:7",
            "20:11"
        ],
        "relativeCount": 0.10067114093959731,
        "url": "2kg/sci_list.html",
        "verseCount": 15
    },
    {
        "name": "1 Chronicles",
        "refs": [
            "10:25",
            "1:19",
            "16:30",
            "21:5",
            "22:14",
            "29:7",
            "29:7"
        ],
        "relativeCount": 0.04697986577181208,
        "url": "1chr/sci_list.html",
        "verseCount": 7
    },
    {
        "name": "2 Chronicles",
        "refs": [
            "4:2",
            "13:3-4",
            "13:16-17",
            "14:8-14",
            "16:12",
            "26:19-21",
            "36:22-23"
        ],
        "relativeCount": 0.12080536912751678,
        "url": "2chr/sci_list.html",
        "verseCount": 18
    },
    {
        "name": "Ezra",
        "refs": [
            "6:1-2"
        ],
        "relativeCount": 0.013422818791946308,
        "url": "ezra/sci_list.html",
        "verseCount": 2
    },
    {
        "name": "Nehemiah",
        "refs": [],
        "relativeCount": 0,
        "url": null,
        "verseCount": 0
    },
    {
        "name": "Esther",
        "refs": [
            "6:6"
        ],
        "relativeCount": 0.006711409395973154,
        "url": "est/sci_list.html",
        "verseCount": 1
    },
    {
        "name": "Job",
        "refs": [
            "9:6",
            "9:7",
            "11:9",
            "26:11",
            "37:10",
            "37:18",
            "38:4-6",
            "38:13",
            "38:22",
            "38:29",
            "38:39-41",
            "39:9-10",
            "39:13-16",
            "39:27-30",
            "40:15-16",
            "41:1",
            "41:14"
        ],
        "relativeCount": 0.19463087248322147,
        "url": "job/sci_list.html",
        "verseCount": 29
    },
    {
        "name": "Psalms",
        "refs": [
            "7:9",
            "16:7",
            "18:7",
            "18:15",
            "19:4-6",
            "26:2",
            "29:6",
            "33:14-15",
            "38:3",
            "50:11-12",
            "58:8",
            "68:8",
            "73:21",
            "74:13-14",
            "74:17",
            "75:3",
            "11:20-32",
            "78:27",
            "82:5",
            "87:4",
            "89:10",
            "93:1",
            "96:10",
            "103:2-3",
            "104:5",
            "7:20",
            "104:6-7",
            "104:21",
            "104:24",
            "106:39",
            "114:7-8",
            "145:9",
            "145:17",
            "147:7",
            "148:7",
            "150:1"
        ],
        "relativeCount": 0.37583892617449666,
        "url": "ps/sci_list.html",
        "verseCount": 56
    },
    {
        "name": "Proverbs",
        "refs": [
            "3:5",
            "3:13",
            "20:24",
            "23:7",
            "23:16"
        ],
        "relativeCount": 0.03355704697986577,
        "url": "pr/sci_list.html",
        "verseCount": 5
    },
    {
        "name": "Ecclesiastes",
        "refs": [
            "1:5",
            "1:7",
            "3:11",
            "3:11",
            "7:24",
            "8:16",
            "11:5"
        ],
        "relativeCount": 0.04697986577181208,
        "url": "ec/sci_list.html",
        "verseCount": 7
    },
    {
        "name": "Song of Solomon",
        "refs": [],
        "relativeCount": 0,
        "url": null,
        "verseCount": 0
    },
    {
        "name": "Isaiah",
        "refs": [
            "2:19",
            "5:25",
            "5:26",
            "10:7",
            "11:6",
            "65:25",
            "11:8",
            "11:12",
            "13:10-13",
            "13:13",
            "13:21-22",
            "14:29",
            "24:18-20",
            "27:1",
            "29:7",
            "30:6",
            "30:26",
            "30:30",
            "34:4",
            "34:7",
            "34:13-14",
            "38:8",
            "40:22",
            "40:26",
            "43:20",
            "48:13",
            "51:9-10",
            "59:5",
            "60:19",
            "66:24"
        ],
        "relativeCount": 0.2550335570469799,
        "url": "is/sci_list.html",
        "verseCount": 38
    },
    {
        "name": "Jeremiah",
        "refs": [
            "3:3",
            "8:7",
            "8:17",
            "10:10",
            "11:20",
            "14:6",
            "17:10",
            "20:12",
            "31:37",
            "49:33",
            "51:37",
            "51:42",
            "51:57"
        ],
        "relativeCount": 0.087248322147651,
        "url": "jer/sci_list.html",
        "verseCount": 13
    },
    {
        "name": "Lamentations",
        "refs": [
            "4:3"
        ],
        "relativeCount": 0.006711409395973154,
        "url": "lam/sci_list.html",
        "verseCount": 1
    },
    {
        "name": "Ezekiel",
        "refs": [
            "1:22",
            "7:2",
            "10:1",
            "32:7-8",
            "38:18-20"
        ],
        "relativeCount": 0.053691275167785234,
        "url": "ezek/sci_list.html",
        "verseCount": 8
    },
    {
        "name": "Daniel",
        "refs": [
            "1:1",
            "2:35",
            "4:10-11",
            "25:27",
            "52:31",
            "5:1-2",
            "5:31",
            "8:10"
        ],
        "relativeCount": 0.06711409395973154,
        "url": "dan/sci_list.html",
        "verseCount": 10
    },
    {
        "name": "Hosea",
        "refs": [],
        "relativeCount": 0,
        "url": null,
        "verseCount": 0
    },
    {
        "name": "Joel",
        "refs": [
            "2:10",
            "2:31",
            "3:15",
            "3:16"
        ],
        "relativeCount": 0.026845637583892617,
        "url": "jl/sci_list.html",
        "verseCount": 4
    },
    {
        "name": "Amos",
        "refs": [
            "2:9",
            "5:8",
            "8:8",
            "8:9",
            "9:1-4"
        ],
        "relativeCount": 0.053691275167785234,
        "url": "am/sci_list.html",
        "verseCount": 8
    },
    {
        "name": "Obadiah",
        "refs": [],
        "relativeCount": 0,
        "url": null,
        "verseCount": 0
    },
    {
        "name": "Jonah",
        "refs": [
            "1:4",
            "1:17",
            "3:3"
        ],
        "relativeCount": 0.020134228187919462,
        "url": "jon/sci_list.html",
        "verseCount": 3
    },
    {
        "name": "Micah",
        "refs": [
            "6:2"
        ],
        "relativeCount": 0.006711409395973154,
        "url": "mic/sci_list.html",
        "verseCount": 1
    },
    {
        "name": "Nahum",
        "refs": [
            "1:3",
            "1:3-6"
        ],
        "relativeCount": 0.03355704697986577,
        "url": "nah/sci_list.html",
        "verseCount": 5
    },
    {
        "name": "Habakkuk",
        "refs": [
            "1:8",
            "3:6",
            "3:10",
            "10:12-13",
            "3:11"
        ],
        "relativeCount": 0.040268456375838924,
        "url": "hab/sci_list.html",
        "verseCount": 6
    },
    {
        "name": "Zephaniah",
        "refs": [],
        "relativeCount": 0,
        "url": null,
        "verseCount": 0
    },
    {
        "name": "Haggai",
        "refs": [
            "2:6-7"
        ],
        "relativeCount": 0.013422818791946308,
        "url": "hag/sci_list.html",
        "verseCount": 2
    },
    {
        "name": "Zechariah",
        "refs": [
            "1:11",
            "12:1",
            "14:4",
            "14:7"
        ],
        "relativeCount": 0.026845637583892617,
        "url": "zech/sci_list.html",
        "verseCount": 4
    },
    {
        "name": "Malachi",
        "refs": [
            "1:3"
        ],
        "relativeCount": 0.006711409395973154,
        "url": "mal/sci_list.html",
        "verseCount": 1
    },
    {
        "name": "Matthew",
        "refs": [
            "2:1",
            "2:9",
            "2:16",
            "4:2",
            "4:8",
            "6:26",
            "6:26",
            "8:14-15",
            "8:24-26",
            "9:2-6",
            "9:22",
            "9:27-29",
            "9:32-33",
            "9:35",
            "10:1",
            "10:8",
            "12:10-13",
            "12:15",
            "10:29",
            "12:22",
            "12:40",
            "13:28",
            "13:31-32",
            "14:14",
            "14:35-37",
            "17:15-18",
            "21:14",
            "24:29",
            "24:37",
            "27:45",
            "28:2"
        ],
        "relativeCount": 0.33557046979865773,
        "url": "mt/sci_list.html",
        "verseCount": 50
    },
    {
        "name": "Mark",
        "refs": [
            "1:30-31",
            "1:32-34",
            "2:3-12",
            "3:1-5",
            "3:14-15",
            "4:31",
            "4:39",
            "5:25-29",
            "5:34",
            "6:13",
            "6:48-51",
            "6:56",
            "7:32-35",
            "8:22-23",
            "8:24-25",
            "9:17",
            "9:44",
            "10:6",
            "10:52",
            "13:8",
            "13:24-25",
            "15:33"
        ],
        "relativeCount": 0.348993288590604,
        "url": "mk/sci_list.html",
        "verseCount": 52
    },
    {
        "name": "Luke",
        "refs": [
            "2:1",
            "4:2",
            "4:5",
            "4:38-39",
            "4:40",
            "5:12-13",
            "5:18-25",
            "6:6-10",
            "6:18",
            "6:19",
            "7:2-10",
            "7:12-15",
            "7:21",
            "8:23-24",
            "8:43-44",
            "8:48",
            "8:49-55",
            "9:1-2",
            "9:11",
            "9:39",
            "9:42",
            "10:9",
            "11:14",
            "11:15-16",
            "11:19",
            "11:24-26",
            "11:34",
            "13:11-16",
            "17:12-14",
            "17:26-27",
            "17:29-32",
            "18:35-43",
            "21:25",
            "23:44-45"
        ],
        "relativeCount": 0.6040268456375839,
        "url": "lk/sci_list.html",
        "verseCount": 90
    },
    {
        "name": "John",
        "refs": [
            "1:48-50",
            "3:8",
            "10:6",
            "17:26-27",
            "13:31-32",
            "3:16",
            "3:12",
            "4:46-51",
            "5:4",
            "5:5-9",
            "5:14",
            "9:1-3",
            "9:6-7",
            "12:24"
        ],
        "relativeCount": 0.20134228187919462,
        "url": "jn/sci_list.html",
        "verseCount": 30
    },
    {
        "name": "Acts",
        "refs": [
            "1:11",
            "2:20",
            "3:2-7",
            "3:20",
            "4:31",
            "5:15-16",
            "9:33-34",
            "9:36-40",
            "10:38",
            "14:8-10",
            "19:10",
            "19:12",
            "28:3-6",
            "28:8-9"
        ],
        "relativeCount": 0.2080536912751678,
        "url": "acts/sci_list.html",
        "verseCount": 31
    },
    {
        "name": "Romans",
        "refs": [
            "1:20",
            "1:21-25",
            "5:12",
            "8:22",
            "10:18"
        ],
        "relativeCount": 0.06040268456375839,
        "url": "rom/sci_list.html",
        "verseCount": 9
    },
    {
        "name": "1 Corinthians",
        "refs": [
            "11:30",
            "15:22",
            "15:36",
            "15:39",
            "15:45",
            "15:46"
        ],
        "relativeCount": 0.040268456375838924,
        "url": "1cor/sci_list.html",
        "verseCount": 6
    },
    {
        "name": "2 Corinthians",
        "refs": [
            "11:3"
        ],
        "relativeCount": 0.006711409395973154,
        "url": "2cor/sci_list.html",
        "verseCount": 1
    },
    {
        "name": "Galatians",
        "refs": [],
        "relativeCount": 0,
        "url": null,
        "verseCount": 0
    },
    {
        "name": "Ephesians",
        "refs": [
            "2:2"
        ],
        "relativeCount": 0.006711409395973154,
        "url": "eph/sci_list.html",
        "verseCount": 1
    },
    {
        "name": "Philippians",
        "refs": [],
        "relativeCount": 0,
        "url": null,
        "verseCount": 0
    },
    {
        "name": "Colossians",
        "refs": [
            "1:16-17"
        ],
        "relativeCount": 0.013422818791946308,
        "url": "col/sci_list.html",
        "verseCount": 2
    },
    {
        "name": "1 Thessalonians",
        "refs": [],
        "relativeCount": 0,
        "url": null,
        "verseCount": 0
    },
    {
        "name": "2 Thessalonians",
        "refs": [],
        "relativeCount": 0,
        "url": null,
        "verseCount": 0
    },
    {
        "name": "1 Timothy",
        "refs": [
            "2:18-22",
            "2:13",
            "6:20"
        ],
        "relativeCount": 0.04697986577181208,
        "url": "1tim/sci_list.html",
        "verseCount": 7
    },
    {
        "name": "2 Timothy",
        "refs": [],
        "relativeCount": 0,
        "url": null,
        "verseCount": 0
    },
    {
        "name": "Titus",
        "refs": [],
        "relativeCount": 0,
        "url": null,
        "verseCount": 0
    },
    {
        "name": "Philemon",
        "refs": [],
        "relativeCount": 0,
        "url": null,
        "verseCount": 0
    },
    {
        "name": "Hebrews",
        "refs": [
            "1:10",
            "12:26"
        ],
        "relativeCount": 0.013422818791946308,
        "url": "heb/sci_list.html",
        "verseCount": 2
    },
    {
        "name": "James",
        "refs": [
            "3:7",
            "5:14-15",
            "5:17",
            "3:20"
        ],
        "relativeCount": 0.03355704697986577,
        "url": "jas/sci_list.html",
        "verseCount": 5
    },
    {
        "name": "1 Peter",
        "refs": [],
        "relativeCount": 0,
        "url": null,
        "verseCount": 0
    },
    {
        "name": "2 Peter",
        "refs": [
            "2:4-5"
        ],
        "relativeCount": 0.013422818791946308,
        "url": "2pet/sci_list.html",
        "verseCount": 2
    },
    {
        "name": "1 John",
        "refs": [],
        "relativeCount": 0,
        "url": "1jn/sci_list.html",
        "verseCount": 0
    },
    {
        "name": "2 John",
        "refs": [],
        "relativeCount": 0,
        "url": null,
        "verseCount": 0
    },
    {
        "name": "3 John",
        "refs": [],
        "relativeCount": 0,
        "url": null,
        "verseCount": 0
    },
    {
        "name": "Jude",
        "refs": [],
        "relativeCount": 0,
        "url": null,
        "verseCount": 0
    },
    {
        "name": "Revelation",
        "refs": [
            "1:7",
            "4:11",
            "6:12-14",
            "6:13",
            "7:1",
            "8:5",
            "8:10",
            "8:12",
            "9:1",
            "11:19",
            "12:4",
            "16:17-21",
            "21:1"
        ],
        "relativeCount": 0.12751677852348994,
        "url": "rev/sci_list.html",
        "verseCount": 19
    }
]
